{
    "name": "Account",
    "base": "PersistedModel",
    "idInjection": true,
    "options": {
        "validateUpsert": true
    },
    "properties": {
        "AccountID": {
            "type": "number",
            "required": true
        },
        "AccountName": {
            "type": "string",
            "required": true
        },
        "Amount": {
            "type": "number",
            "required": false
        }
    },
    "validations": [],
    "relations": {
        "transactions": {
            "type": "hasMany",
            "model": "Transaction",
            "foreignKey": ""
        }
    },
    "acls": [],
    "methods": {}
}